<?xml version="1.0" encoding="UTF-8" standalone="no"?>
<!DOCTYPE svg PUBLIC "-//W3C//DTD SVG 1.1//EN"
 "http://www.w3.org/Graphics/SVG/1.1/DTD/svg11.dtd">
<!-- Generated by graphviz version 2.44.1 (0)
 -->
<!-- Title: func 0x555555556850 Pages: 1 -->
<svg width="646pt" height="246pt"
 viewBox="0.00 0.00 646.00 246.00" xmlns="http://www.w3.org/2000/svg" xmlns:xlink="http://www.w3.org/1999/xlink">
<g id="graph0" class="graph" transform="scale(1 1) rotate(0) translate(4 242)">
<title>func 0x555555556850</title>
<polygon fill="white" stroke="transparent" points="-4,4 -4,-242 642,-242 642,4 -4,4"/>
<g id="clust1" class="cluster">
<title>cluster_01</title>
<polygon fill="none" stroke="black" points="8,-59.5 8,-201.5 214,-201.5 214,-59.5 8,-59.5"/>
<text text-anchor="middle" x="111" y="-186.3" font-family="Times,serif" font-size="14.00">Legend</text>
</g>
<!-- key -->
<g id="node1" class="node">
<title>key</title>
<text text-anchor="start" x="27" y="-152.8" font-family="Times,serif" font-size="14.00">Jump/Fallthrough</text>
<text text-anchor="start" x="101" y="-133.8" font-family="Times,serif" font-size="14.00">Call</text>
<text text-anchor="start" x="26" y="-114.8" font-family="Times,serif" font-size="14.00">Conditional Jump</text>
<text text-anchor="start" x="33" y="-95.8" font-family="Times,serif" font-size="14.00">Conditional Call</text>
<text text-anchor="start" x="93" y="-76.8" font-family="Times,serif" font-size="14.00">Other</text>
</g>
<!-- key2 -->
<g id="node2" class="node">
<title>key2</title>
<text text-anchor="start" x="177" y="-152.8" font-family="Times,serif" font-size="14.00"> </text>
<text text-anchor="start" x="177" y="-133.8" font-family="Times,serif" font-size="14.00"> </text>
<text text-anchor="start" x="177" y="-114.8" font-family="Times,serif" font-size="14.00"> </text>
<text text-anchor="start" x="177" y="-95.8" font-family="Times,serif" font-size="14.00"> </text>
<text text-anchor="start" x="177" y="-76.8" font-family="Times,serif" font-size="14.00"> </text>
</g>
<!-- key&#45;&gt;key2 -->
<g id="edge1" class="edge">
<title>key:e&#45;&gt;key2:w</title>
<path fill="none" stroke="gray" stroke-dasharray="5,2" d="M127,-157C143.97,-157 150.6,-157 163.7,-157"/>
<polygon fill="gray" stroke="gray" points="164,-160.5 174,-157 164,-153.5 164,-160.5"/>
</g>
<!-- key&#45;&gt;key2 -->
<g id="edge2" class="edge">
<title>key:e&#45;&gt;key2:w</title>
<path fill="none" stroke="#008b8b" stroke-dasharray="5,2" d="M127,-138C143.97,-138 150.6,-138 163.7,-138"/>
<polygon fill="#008b8b" stroke="#008b8b" points="164,-141.5 174,-138 164,-134.5 164,-141.5"/>
</g>
<!-- key&#45;&gt;key2 -->
<g id="edge3" class="edge">
<title>key:e&#45;&gt;key2:w</title>
<path fill="none" stroke="gray" d="M127,-118C143.97,-118 150.6,-118 163.7,-118"/>
<polygon fill="gray" stroke="gray" points="164,-121.5 174,-118 164,-114.5 164,-121.5"/>
</g>
<!-- key&#45;&gt;key2 -->
<g id="edge4" class="edge">
<title>key:e&#45;&gt;key2:w</title>
<path fill="none" stroke="#008b8b" d="M127,-99C143.97,-99 150.6,-99 163.7,-99"/>
<polygon fill="#008b8b" stroke="#008b8b" points="164,-102.5 174,-99 164,-95.5 164,-102.5"/>
</g>
<!-- key&#45;&gt;key2 -->
<g id="edge5" class="edge">
<title>key:e&#45;&gt;key2:w</title>
<path fill="none" stroke="gray" stroke-dasharray="1,5" d="M127,-80C143.97,-80 150.6,-80 163.7,-80"/>
<polygon fill="gray" stroke="gray" points="164,-83.5 174,-80 164,-76.5 164,-83.5"/>
</g>
<!-- bb_555555556850 -->
<g id="node3" class="node">
<title>bb_555555556850</title>
<text text-anchor="start" x="235" y="-219.8" font-family="monospace" font-size="14.00">555555556850: </text>
<text text-anchor="start" x="355" y="-219.8" font-family="monospace" font-size="14.00">PUSH RBP</text>
<text text-anchor="start" x="615" y="-219.8" font-family="Times,serif" font-size="14.00">   </text>
<text text-anchor="start" x="235" y="-200.8" font-family="monospace" font-size="14.00">555555556851: </text>
<text text-anchor="start" x="355" y="-200.8" font-family="monospace" font-size="14.00">MOV RBP,RSP</text>
<text text-anchor="start" x="615" y="-200.8" font-family="Times,serif" font-size="14.00">   </text>
<text text-anchor="start" x="235" y="-181.8" font-family="monospace" font-size="14.00">555555556854: </text>
<text text-anchor="start" x="355" y="-181.8" font-family="monospace" font-size="14.00">MOV qword ptr [RBP + &#45;0x8],RDI</text>
<text text-anchor="start" x="615" y="-181.8" font-family="Times,serif" font-size="14.00">   </text>
<text text-anchor="start" x="235" y="-162.8" font-family="monospace" font-size="14.00">555555556858: </text>
<text text-anchor="start" x="355" y="-162.8" font-family="monospace" font-size="14.00">MOV qword ptr [RBP + &#45;0x10],RSI</text>
<text text-anchor="start" x="615" y="-162.8" font-family="Times,serif" font-size="14.00">   </text>
<text text-anchor="start" x="235" y="-143.8" font-family="monospace" font-size="14.00">55555555685c: </text>
<text text-anchor="start" x="355" y="-143.8" font-family="monospace" font-size="14.00">MOV RAX,qword ptr [RBP + &#45;0x8]</text>
<text text-anchor="start" x="615" y="-143.8" font-family="Times,serif" font-size="14.00">   </text>
<text text-anchor="start" x="235" y="-124.8" font-family="monospace" font-size="14.00">555555556860: </text>
<text text-anchor="start" x="355" y="-124.8" font-family="monospace" font-size="14.00">MOVZX EDX,byte ptr [RAX]</text>
<text text-anchor="start" x="615" y="-124.8" font-family="Times,serif" font-size="14.00">   </text>
<text text-anchor="start" x="235" y="-105.8" font-family="monospace" font-size="14.00">555555556863: </text>
<text text-anchor="start" x="355" y="-105.8" font-family="monospace" font-size="14.00">MOV RAX,qword ptr [RBP + &#45;0x10]</text>
<text text-anchor="start" x="615" y="-105.8" font-family="Times,serif" font-size="14.00">   </text>
<text text-anchor="start" x="235" y="-86.8" font-family="monospace" font-size="14.00">555555556867: </text>
<text text-anchor="start" x="355" y="-86.8" font-family="monospace" font-size="14.00">MOVZX EAX,byte ptr [RAX]</text>
<text text-anchor="start" x="615" y="-86.8" font-family="Times,serif" font-size="14.00">   </text>
<text text-anchor="start" x="235" y="-67.8" font-family="monospace" font-size="14.00">55555555686a: </text>
<text text-anchor="start" x="355" y="-67.8" font-family="monospace" font-size="14.00">CMP DL,AL</text>
<text text-anchor="start" x="615" y="-67.8" font-family="Times,serif" font-size="14.00">   </text>
<text text-anchor="start" x="235" y="-48.8" font-family="monospace" font-size="14.00">55555555686c: </text>
<text text-anchor="start" x="355" y="-48.8" font-family="monospace" font-size="14.00">SETZ AL</text>
<text text-anchor="start" x="615" y="-48.8" font-family="Times,serif" font-size="14.00">   </text>
<text text-anchor="start" x="235" y="-29.8" font-family="monospace" font-size="14.00">55555555686f: </text>
<text text-anchor="start" x="355" y="-29.8" font-family="monospace" font-size="14.00">POP RBP</text>
<text text-anchor="start" x="615" y="-29.8" font-family="Times,serif" font-size="14.00">   </text>
<text text-anchor="start" x="235" y="-10.8" font-family="monospace" font-size="14.00">555555556870: </text>
<text text-anchor="start" x="355" y="-10.8" font-family="monospace" font-size="14.00">RET</text>
<text text-anchor="start" x="615" y="-10.8" font-family="Times,serif" font-size="14.00">   </text>
<polygon fill="none" stroke="black" points="232,-4 232,-234 630,-234 630,-4 232,-4"/>
</g>
</g>
</svg>
